{
  "formatVersion": 1,
  "database": {
    "version": 1,
    "identityHash": "9887afdf6ab4b8d834adeabf24a39537",
    "entities": [
      {
        "tableName": "NYCSchool",
        "createSql": "CREATE TABLE IF NOT EXISTS `${TABLE_NAME}` (`id` INTEGER PRIMARY KEY AUTOINCREMENT NOT NULL, `academicopportunities1` TEXT, `academicopportunities2` TEXT, `city` TEXT, `dbn` TEXT, `overviewParagraph` TEXT, `phoneNumber` TEXT, `primaryAddressLine1` TEXT, `schoolEmail` TEXT, `schoolName` TEXT, `stateCode` TEXT, `totalStudents` TEXT, `website` TEXT, `zip` TEXT)",
        "fields": [
          {
            "fieldPath": "id",
            "columnName": "id",
            "affinity": "INTEGER",
            "notNull": true
          },
          {
            "fieldPath": "academicopportunities1",
            "columnName": "academicopportunities1",
            "affinity": "TEXT",
            "notNull": false
          },
          {
            "fieldPath": "academicopportunities2",
            "columnName": "academicopportunities2",
            "affinity": "TEXT",
            "notNull": false
          },
          {
            "fieldPath": "city",
            "columnName": "city",
            "affinity": "TEXT",
            "notNull": false
          },
          {
            "fieldPath": "dbn",
            "columnName": "dbn",
            "affinity": "TEXT",
            "notNull": false
          },
          {
            "fieldPath": "overviewParagraph",
            "columnName": "overviewParagraph",
            "affinity": "TEXT",
            "notNull": false
          },
          {
            "fieldPath": "phoneNumber",
            "columnName": "phoneNumber",
            "affinity": "TEXT",
            "notNull": false
          },
          {
            "fieldPath": "primaryAddressLine1",
            "columnName": "primaryAddressLine1",
            "affinity": "TEXT",
            "notNull": false
          },
          {
            "fieldPath": "schoolEmail",
            "columnName": "schoolEmail",
            "affinity": "TEXT",
            "notNull": false
          },
          {
            "fieldPath": "schoolName",
            "columnName": "schoolName",
            "affinity": "TEXT",
            "notNull": false
          },
          {
            "fieldPath": "stateCode",
            "columnName": "stateCode",
            "affinity": "TEXT",
            "notNull": false
          },
          {
            "fieldPath": "totalStudents",
            "columnName": "totalStudents",
            "affinity": "TEXT",
            "notNull": false
          },
          {
            "fieldPath": "website",
            "columnName": "website",
            "affinity": "TEXT",
            "notNull": false
          },
          {
            "fieldPath": "zip",
            "columnName": "zip",
            "affinity": "TEXT",
            "notNull": false
          }
        ],
        "primaryKey": {
          "columnNames": [
            "id"
          ],
          "autoGenerate": true
        },
        "indices": [],
        "foreignKeys": []
      }
    ],
    "views": [],
    "setupQueries": [
      "CREATE TABLE IF NOT EXISTS room_master_table (id INTEGER PRIMARY KEY,identity_hash TEXT)",
      "INSERT OR REPLACE INTO room_master_table (id,identity_hash) VALUES(42, \"9887afdf6ab4b8d834adeabf24a39537\")"
    ]
  }
}